{
  "extends": "../tslint.json",
  "rules": {
      "directive-selector": [
          true,
          "attribute",
          "app",
          "camelCase"
      ],
      "component-selector": [
          true,
          "element",
          "app",
          "kebab-case"
      ],
      "no-console": true,
      "no-debugger": true
  }
}
