{ 
    "userDatasetsData" :
    [
        {
            "id": "ds-k3kk66cqs",            
            "datasetType": "Beneficiary_Summary",
            "fileName": "DE1_0_2008_Beneficiary_Summary_File_Sample_1.csv",
            "datasetName" : "Dataset for Ohio Health August, 2020",            
            "requestedDate": "06/30/2020 10:00",
            "approvedDate": "07/10/2020 14:30",
            "datasetStatus": "Approved"
        },
        {
            "id": "md-abed66cqs",            
            "datasetType": "Carrier_Claims",
            "fileName": "DE1_0_2008_to_2010_Carrier_Claims_Sample_1A.csv",
            "datasetName" : "Medical Dataset for Ohio Health August, 2020",            
            "requestedDate": "06/25/2020 11:00",
            "approvedDate": "07/05/2020 15:15",
            "datasetStatus": "Approved"
        },
        {
            "id": "md-j4fk66cqs",
            "datasetType": "Carrier_Claims",
            "fileName": "DE1_0_2008_to_2010_Carrier_Claims_Sample_1B.csv",
            "datasetName" : "Medical Dataset for United Health August, 2020",
            "requestedDate": "08/31/2020 12:15",
            "approvedDate": "",
            "datasetStatus": "Pending Approval"
        } 
    ]
}